<!DOCTYPE html>
<html>
<head>
<script src="https://ajax.googleapis.com/ajax/libs/jquery/3.1.1/jquery.min.js"></script>

<style>
.scrollup {
    width: 40px;
    height: 40px;
    position: fixed;
    bottom: 50px;
    right: 100px;
    display: none;
    text-indent: -9999px;
    background: url('icon_top.png') no-repeat;
    background-color: #000;
}
</style>
</head>


<body>
<h1>Top of the page</h1>
<table BORDERCOLOR=GREEN width=1200px border=25px>
<tr>
<td>
<marquee  class="topMarque" behavior="scroll" scrollamount="5" loop="true" onmouseout="start ()" onmouseover="stop ()">
    <a href="../Page/EventDetails.aspx?eventID=118">  ;&nbsp;|&nbsp;&nbsp;<a href="www.google.com"> News Link Two </a>&nbsp;&nbsp;|&nbsp;&nbsp; News Link 3<a href="news.google.com"></a>&nbsp;&nbsp;|&nbsp;&nbsp;<a href="cnn.com"> News Link 4</a>&nbsp;&nbsp;|&nbsp;&nbsp;<a href="../Page/EventDetails.aspx?eventID=161"> News Link 5</a>
</marquee>
</td>
</tr>
</table>


<article style="height: 1000px">
    <p style="margin-bottom: 1500px">Scroll down the page&hellip;</p>
    <p>Then click the box.</p>
    <a href="#" class="scrollup">Scroll</a>
</article>

</body>
</html>


<script>
$(document).ready(function () {

    $(window).scroll(function () {
        if ($(this).scrollTop() > 100) {
            $('.scrollup').fadeIn();
        } else {
            $('.scrollup').fadeOut();
        }
    });

    $('.scrollup').click(function () {
        $("html, body").animate({
            scrollTop: 0
        }, 600);
        return false;
    });

});
</script>


